<?xml version="1.0" standalone="no"?>
<!DOCTYPE svg PUBLIC "-//W3C//DTD SVG 1.1//EN" "http://www.w3.org/Graphics/SVG/1.1/DTD/svg11.dtd">
<svg xmlns="http://www.w3.org/2000/svg">
<defs>
<font id="icofont" horiz-adv-x="1000" >
<font-face font-family="IcoFont" font-weight="400" font-style="Regular" units-per-em="1000" ascent="850" descent="-150" />
<missing-glyph horiz-adv-x="1000" />
<glyph glyph-name="server" horiz-adv-x="1000" unicode="&#xefe0;" d="M173 338c5 0 10-1 15-1 104 0 208 0 312 0h313c5 0 11 1 16 1 16 3 28 15 28 31 0 48 0 97 0 145-1 16-12 28-29 30-5 1-10 1-14 1h-627c-5 0-10 0-14-1-17-2-29-14-29-31 0-48 0-96 0-143 0-17 12-29 29-32z m598 133c16 0 29-13 30-29 0-16-13-30-30-30-16 0-28 13-29 29 0 16 13 29 29 30z m-554 1h407v-61h-407v61z m-44 109c5-1 11-1 16-1 208 0 415 0 623 0 5 0 10 0 15 1 18 2 29 14 30 31 0 48 0 96 0 143 0 18-12 30-29 32-5 0-10 1-15 1h-626c-5 0-10-1-15-1-16-2-28-15-28-31 0-48 0-96 0-145 0-16 12-28 29-30z m599 132c16 0 29-14 28-30 0-16-13-29-30-28-16 1-28 14-28 30 1 16 14 29 30 28z m-555 1h407v-61h-407v61z m627-737h-304v8c0 4-3 7-6 7h-8v108h116c60 0 120 0 179 0 22 0 35 13 36 32 0 48 0 96 0 143-1 17-11 28-27 32-5 1-11 1-16 1-209 0-418 0-627 0-5 0-10 0-14-1-18-3-29-15-29-33-1-47 0-94 0-141 0-16 10-29 25-32 5-1 11-1 17-1h288v-108h-7c-4 0-7-3-7-7v-8h-303c-7 0-13-5-13-13v-24c0-7 6-13 13-13h304v-8c0-4 2-6 6-6h67c3 0 6 2 6 6v8h304c7 0 13 6 13 13v24c0 7-6 13-13 13z m-73 256c16 1 30-13 30-29-1-17-13-29-30-29-16 0-29 12-29 28 0 17 13 30 29 30z m-554 2h408v-62h-408v62z" />
<glyph glyph-name="mathematical-alt-2" horiz-adv-x="1000" unicode="&#xebed;" d="M251 480h51v87h85v52h-85v88h-51v-88h-85v-52h85v-87z m473-184l60-62 36 37-60 62 60 62-36 37-60-62-60 62-36-37 60-62-60-62 36-37 60 62z m-558 54h221v-52h-221v52z m462 357h221v-52h-221v52z m0-98h221v-52h-221v52z m372 215h-1000v-688h365l-126-260h97l43 90h224l43-90h98l-126 260h382v688z m-589-792l50 104h60l50-104h-160z m546 149h-914v599h914v-599z" />
<glyph glyph-name="dice" horiz-adv-x="1000" unicode="&#xef03;" d="M868 626c-175 53-349 105-523 157-58 17-108-17-121-65-25-88-52-175-78-263s-53-174-79-262c-16-54 11-103 65-119 175-52 350-105 525-157 54-16 103 11 119 65 53 175 105 349 157 524 16 54-11 104-65 120z m-521-463c-14-48-66-76-115-61-49 15-76 66-61 116 14 47 66 75 115 61 48-14 76-66 61-116z m64 213c-15-48-66-76-115-62-49 15-76 67-61 116 14 49 65 76 115 61 49-15 76-66 61-115z m63 212c-14-48-65-75-114-61-49 15-77 66-62 116 15 48 66 76 115 61 49-15 76-66 61-116z m228-530c-15-49-65-77-115-62-49 15-76 65-62 114 15 50 67 78 116 63 48-15 76-66 61-115z m64 213c-15-49-66-77-115-63-49 15-77 66-62 116 15 49 66 76 114 61 50-15 77-65 63-114z m63 213c-14-50-65-77-114-63-49 15-77 66-63 115 15 49 66 77 115 62 49-14 77-65 62-114z" />
<glyph glyph-name="dashboard" horiz-adv-x="1000" unicode="&#xeefa;" d="M716 450c5-4 12-3 16 1 13 11 26 22 38 33 5 4 5 10 0 14-118 98-311 132-477 42-88-48-152-117-193-208-24-53-37-109-37-167-1-6 4-10 10-10h50c6 0 11 4 11 10 10 143 75 253 206 317 130 64 257 48 376-32z m128-25c-4 5-10 5-13 0-12-13-24-26-35-39-4-5-4-12-1-16 22-31 39-63 51-98 12-35 18-71 19-107 1-6 5-10 11-10h51c6 0 11 4 10 10-2 97-34 183-93 260z m-51 24c-1-2-3-3-5-4-90-80-179-159-269-238-6-5-11-8-19-7-34 0-56-34-43-64 9-21 31-32 54-27 20 4 34 23 35 45 0 5 0 11 3 15 63 71 125 142 188 213 19 22 39 43 58 65l-2 2z" />
<glyph glyph-name="edit" horiz-adv-x="1000" unicode="&#xef10;" d="M934 468c-1-1-2-2-3-2-44-45-88-89-132-134-4-4-6-11-6-17-1-81-1-161-1-241v-8c0-4-6-7-14-7h-554c-8 0-15 6-15 14v555c0 8 4 14 8 14h8c80 0 159 0 239 1 7 0 16 3 21 8 43 42 84 84 126 126 2 2 3 3 5 5 2 3-2 5-10 5h-529c-8 0-14-6-14-14v-846c0-8 6-14 14-14h846c8 0 15 6 15 14v529c0 8-2 14-4 12z m-597-105v-162c0-8 7-14 15-14h161c8 0 19 4 24 10 129 129 259 259 388 388 6 6 6 15 0 20l-169 170c-6 6-15 6-21 0-129-129-259-259-388-388-5-5-10-16-10-24z" />
<glyph glyph-name="plus-square" horiz-adv-x="1000" unicode="&#xefc1;" d="M865 788h-730c-40 0-72-33-72-73v-730c0-40 32-73 72-73h730c40 0 73 33 73 73v730c0 40-33 73-73 73z m-63-467c-1-9-2-19-5-30h-238v-238c-11-3-21-4-31-5-10-1-20-1-30-1-9 0-18 0-27 1-9 1-19 2-30 5v238h-238c-2 11-4 21-5 31-1 10-1 20-1 30 0 9 0 18 1 27 1 9 3 19 5 30h238v238c11 2 21 4 31 5 10 1 20 1 30 1 9 0 18 0 27-1 9-1 19-3 30-5v-238h238c3-11 4-21 5-31 1-10 1-20 1-30 0-9 0-18-1-27z" />
<glyph glyph-name="ui-delete" horiz-adv-x="1000" unicode="&#xec53;" d="M800 573c-98 0-195 0-292 0-103 0-206 1-309 0-52-1-64-14-57-65 27-198 55-396 84-594 7-53 20-64 74-64 138 0 276 0 415 0 59 0 72 15 79 73 23 190 47 381 71 570 9 66 0 79-65 80z m-454-618c-33-5-46 22-49 51-17 137-32 274-48 411-3 27 5 50 33 55 32 5 47-17 50-45 11-81 20-162 30-243 7-56 13-112 19-168 3-29-1-57-35-61z m201 51c0-28-12-53-42-52-33 0-42 26-42 56 1 68 0 136 0 203h-1c0 68 1 135 0 203 0 29 5 57 39 59 35 1 45-26 45-55 1-138 1-276 1-414z m217 407c-17-137-34-274-52-410-3-28-18-52-48-47-33 4-39 31-34 61 9 67 16 134 25 201s17 134 25 201c4 29 12 56 47 54 34-3 40-31 37-60z m-339 351c16 83 25 92 81 83 96-15 99-18 86-111 74-13 148-27 223-39 32-5 61-13 56-53-6-42-41-37-70-32-172 29-344 59-516 89-37 6-75 14-112 19-30 5-48 20-43 51 6 32 30 39 58 34 79-14 158-28 237-41z" />
<glyph glyph-name="ui-edit" horiz-adv-x="1000" unicode="&#xec55;" d="M0-110c28 95 56 190 83 286 3 7 5 15 7 23 3 11 9 20 18 28 9 7 16 16 24 24 131 129 261 258 391 387 3 3 6 6 8 9 18-18 34-34 53-53-2-1-6-3-9-6-135-135-270-270-405-405-5-5-9-11-11-18-16-54-31-107-47-161-2-7-1-11 4-16 8-7 16-16 24-23 3-3 8-5 12-4 54 16 107 31 161 48 5 1 9 5 12 9 137 136 274 273 411 410 2 2 5 5 6 7 19-20 38-38 59-59-1-1-5-2-7-5-135-133-270-266-404-401-19-18-39-30-64-37-89-25-178-52-267-78-5-2-11-3-17-5h-8c-5 2-9 4-13 6-12 5-16 17-21 28v6z m269 165c-3 17-5 32-7 47-1 8-4 10-11 12-17 3-34 7-50 11 142 142 284 284 425 425 22-22 46-45 68-68-140-141-282-283-425-427z m408 731c13 12 26 26 40 38 39 36 90 35 128-3 43-41 84-83 126-125 39-40 38-93-1-133-12-12-24-24-35-35-85 86-171 171-258 258z m-104-94c19 18 39 36 58 54 90-89 179-179 269-268-19-18-39-37-58-55l-269 269z" />
<glyph glyph-name="game-pad" horiz-adv-x="1000" unicode="&#xea31;" d="M353 622c28 0 56 1 84 0 9 0 16 3 21 11 5 8 13 12 23 12 13-1 25-1 38 0 10 0 18-3 23-12 5-8 13-11 22-11 54 1 109 1 163 1 85-1 164-69 182-154 5-28 4-55 1-83-3-18-1-37 1-55l23-190c2-20 5-41 2-60-5-43-182-27-208 24-20 38-38 77-59 116-4 8-12 15-20 19-26 13-50 28-70 50-5 6-15 10-22 10-38 1-76 0-114 0-9 0-16-3-22-10-19-21-41-38-68-48-11-5-19-13-24-24-18-37-29-77-54-109-52-65-212-70-212-16 0 32 5 64 9 95 6 59 14 118 20 177 1 10-1 21-3 31-15 102 50 204 156 223 27 5 55 3 82 3 9 1 17 0 26 0z m-139-166c-30 0-30 0-30-31 0-1 0-2 0-2-1-10 4-14 12-13 10 0 20 0 29-1 18-2 26 12 35 23 1 1 1 6 0 7-8 8-15 19-29 18-5-1-11-1-17-1z m131 0c-6 0-12 0-18 1-14 1-20-11-29-18-1-2 0-8 2-10 10-13 22-23 40-20 5 1 11 0 17 1 16 0 17 1 17 17 0 29 0 29-29 29z m-87 76v-12c0-14-2-29 1-42 2-9 12-16 18-24 1-1 3-1 4 0 7 9 18 16 21 27 4 13 2 28 1 42 0 4-5 9-8 9-12 1-23 0-37 0z m0-163c0-8 1-16 0-23 0-6 2-8 8-8 9 0 18 0 27 0 7 0 10 3 10 10 0 10-1 20 0 29 3 19-9 28-20 39-1 1-6 1-7 0-9-9-20-16-18-32 1-5 0-10 0-15z m432-10c0-17 14-31 31-31 17 0 30 15 30 32 0 17-14 32-31 31-17 0-30-14-30-32z m-42 44c17-1 31 14 31 31 0 17-14 32-31 32-16 0-30-14-30-32 0-17 13-31 30-31z m175 31c0 18-14 32-30 32-17 0-31-15-31-32 1-17 14-31 31-31 17 0 30 14 30 31z m-133 75c0-18 13-32 30-32 17 0 31 14 31 31 0 18-13 32-30 32-17 0-31-13-31-31z m-190 28c12 0 24 0 37-1 8 0 15 3 15 13 0 10-7 12-16 12-25 0-49 0-74 0-9 0-16-2-15-13 0-10 6-11 14-11 13 0 26 0 39 0z" />
<glyph glyph-name="search-2" horiz-adv-x="1000" unicode="&#xed12;" d="M973 10l-230 230c-34-54-79-99-132-133l229-230c37-36 96-36 133 0 36 37 36 96 0 133z m-223 465c0 207-168 375-375 375-207 0-375-168-375-375 0-207 168-375 375-375 207 0 375 168 375 375z m-375-281c-155 0-281 126-281 281 0 155 126 281 281 281 155 0 281-126 281-281 0-155-126-281-281-281z m-219 281h63c0 86 70 156 156 156v63c-121 0-219-98-219-219z" />
<glyph glyph-name="table" horiz-adv-x="1000" unicode="&#xee06;" d="M0 789v-878h1000v878h-1000z m961-39v-49h-922v49h922z m-548-429v160h165v-160h-165z m165-29v-163h-165v163h165z m-193 29h-162v160h162v-160z m221 160h162v-160h-162v160z m0 28v163h162v-163h-162z m-28 0h-165v163h165v-163z m-193 0h-162v163h162v-163z m-191 0h-155v163h155v-163z m0-28v-160h-155v160h155z m0-189v-163h-155v163h155z m29 0h162v-163h-162v163z m162-191v-151h-162v151h162z m28 0h165v-151h-165v151z m193 0h162v-151h-162v151z m0 28v163h162v-163h-162z m191 163h164v-163h-164v163z m0 29v160h164v-160h-164z m0 188v163h164v-163h-164z m-758-408h155v-151h-155v151z m758-151v151h164v-151h-164z" />
</font>
</defs>
</svg>